American Community Survey population data — acs • kcData
…
An object of class tbl_df (inherits from tbl, data.frame) with 48510 rows and 8 columns.

An object of class tbl_df (inherits from tbl, data.frame) with 51359 rows and 8 columns.

An object of class tbl_df (inherits from tbl, data.frame) with 49819 rows and 8 columns.

    Source

    US Census Bureau American Community Survey 1-Year and 5-Year data
sets (2014-2023)

    Examples

acs1_2023
#> # A tibble: 821 × 7
#>    GEOID   NAME                       variable   estimate   moe label    concept
#>    <chr>   <chr>                      <chr>         <dbl> <dbl> <chr>    <chr>  
#>  1 2938000 Kansas City city, Missouri B01001_001   510671    69 Estimat… Sex by…
#>  2 2938000 Kansas City city, Missouri B01001_002   250013  4299 Estimat… Sex by…
#>  3 2938000 Kansas City city, Missouri B01001_003    16073  1804 Estimat… Sex by…
#>  4 2938000 Kansas City city, Missouri B01001_004    16430  2387 Estimat… Sex by…
#>  5 2938000 Kansas City city, Missouri B01001_005    14115  2267 Estimat… Sex by…
#>  6 2938000 Kansas City city, Missouri B01001_006     9759  1566 Estimat… Sex by…
#>  7 2938000 Kansas City city, Missouri B01001_007     5856  1104 Estimat… Sex by…
#>  8 2938000 Kansas City city, Missouri B01001_008     1616   709 Estimat… Sex by…
#>  9 2938000 Kansas City city, Missouri B01001_009     2999  1029 Estimat… Sex by…
#> 10 2938000 Kansas City city, Missouri B01001_010    11142  2237 Estimat… Sex by…
#> # ℹ 811 more rows

acs5_tract_2023
#> # A tibble: 144,281 × 8
#>    GEOID       NAME              variable estimate   moe label concept geography
#>    <chr>       <chr>             <chr>       <dbl> <dbl> <chr> <chr>   <chr>    
#>  1 29037060001 Census Tract 600… B01001_…     4927   542 Esti… Sex by… block gr…
#>  2 29037060001 Census Tract 600… B01001_…     2518   335 Esti… Sex by… block gr…
#>  3 29037060001 Census Tract 600… B01001_…       90    59 Esti… Sex by… block gr…
#>  4 29037060001 Census Tract 600… B01001_…      130    73 Esti… Sex by… block gr…
#>  5 29037060001 Census Tract 600… B01001_…      180   117 Esti… Sex by… block gr…
#>  6 29037060001 Census Tract 600… B01001_…      154    70 Esti… Sex by… block gr…
#>  7 29037060001 Census Tract 600… B01001_…       23    23 Esti… Sex by… block gr…
#>  8 29037060001 Census Tract 600… B01001_…       21    32 Esti… Sex by… block gr…
#>  9 29037060001 Census Tract 600… B01001_…        7    10 Esti… Sex by… block gr…
#> 10 29037060001 Census Tract 600… B01001_…      121    83 Esti… Sex by… block gr…
#> # ℹ 144,271 more rows
…
